GPL-3.0-only 992
Apache-2.0 585
GPL-3.0-or-later 322
MIT 294
GPL-2.0-only 141
GPL-2.0-or-later 94
BSD-3-Clause 42
AGPL-3.0-only 29
MPL-2.0 23
LGPL-3.0-only 16
WTFPL 15
AGPL-3.0-or-later 14
BSD-2-Clause-FreeBSD 14
PublicDomain 12
Unlicense 9
ISC 8
LGPL-2.1-only 7
Artistic-2.0 4
BSD-2-Clause 3
CC-BY-4.0 3
CC-BY-SA-3.0 3
EPL-1.0 3
LGPL-2.1-or-later 3
Beerware 2
CC-BY-NC-3.0 2
CC-BY-SA-4.0 2
CC0-1.0 2
MirOS 2
Zlib 2
0BSD 1
BSD-2-Clause-NetBSD 1
EUPL-1.1 1
Fair 1
MIT-CMU 1
MPL-1.1 1
NCSA 1
X11 1
XSkat 1
